Vesion:1.0.2.0
11
1
1
20
255
-1
-1
0
0 6 6_HOIST_LOAD_CAL 6_HOIST_LOAD_CAL 0
0 7 7_LOAD_CELL 7_LOAD_CELL 0
0 13 13_INV_SPEED_REF 13_INV_SPEED_REF 0
0 69 69_CLOCK 69_CLOCK 0
0 70 70_ETHERNET_CMS 70_ETHERNET_CMS 0
0 71 71_MONITORING 71_MONITORING 0
0 72 72_CMS_HANDLING 72_CMS_HANDLING 0
0 75 75_DIGITAL_STATU 75_DIGITAL_STATU 0
0 76 76_ANALOG_STATUS 76_ANALOG_STATUS 0
0 77 77_DIGITAL_TRACE 77_DIGITAL_TRACE 0
0 78 78_ANALOG_TRACE 78_ANALOG_TRACE 0
