Vesion:1.0.2.0
11
254
254
0
255
-1
-1
0
0 18 18_POD_DISPLAY 18_POD_DISPLAY 0
0 19 19_FAULT_RELAY 19_FAULT_RELAY 0
0 20 20_INTERLK_RELAY 20_INTERLK_RELAY 0
0 28 28_FAULT_MEMORY 28_FAULT_MEMORY 0
0 29 29_INTLK_MEMORY 29_INTLK_MEMORY 0
0 30 30_HOIST_DATA 30_HOIST_DATA 0
0 31 31_TROLLEY_DATA 31_TROLLEY_DATA 0
0 32 32_GANTRY_DATA 32_GANTRY_DATA 0
0 33 33_BOOM_DATA 33_BOOM_DATA 0
0 34 34_LOAD_DATA 34_LOAD_DATA 0
0 35 35_LOADCELL_DATA 35_LOADCELL_DATA 0
