Vesion:1.0.2.0
20
0
0
10
255
-1
-1
0
0 0 0_MASTER_CONTROL 0_MASTER_CONTROL 0
0 1 1_FAULT_DETECT 1_FAULT_DETECT 0
0 2 2_AUX_MACHINE 2_AUX_MACHINE 0
0 3 3_TILTING 3_TILTING 0
0 5 5_HOIST 5_HOIST 0
0 4 4_SPREADER 4_SPREADER 0
0 8 8_TROLLEY 8_TROLLEY 0
0 9 9_GANTRY 9_GANTRY 0
0 10 10_BOOM 10_BOOM 0
0 12 12_INV_PARAMETER 12_INV_PARAMETER 0
0 14 14_HOIST_POS 14_HOIST_POS 0
0 16 16_BOOM_POS 16_BOOM_POS 0
0 15 15_TROLLEY_POS 15_TROLLEY_POS 0
0 17 17_CHECK 17_CHECK 0
0 21 21_RS485_SENSOR 21_RS485_SENSOR 0
0 22 22_SWAY_SENSOR 22_SWAY_SENSOR 0
0 23 23_ANTI-SWAY 23_ANTI-SWAY 0
0 27 27_G_CABLE_REEL 27_G_CABLE_REEL 0
0 39 39_WHEEL_BRAKE 39_WHEEL_BRAKE 0
0 40 40_SNAG_LOAD_PUM 40_SNAG_LOAD_PUM 0
