CMP,D_TOTAL_LOAD,       QC42.DL0000732,      0.1
CMP,D_HOIST_POSITION,   QC42.DL0001400,      999
CMP,D_TROLLEY_POSITION, QC42.DL0001500,      999
RPS,D_LOAD_CELL_A,      QC42.DL0011828,      999
RPS,D_LOAD_CELL_B,      QC42.DL0011830,      999
RPS,D_LOAD_CELL_C,      QC42.DL0011832,      999
RPS,D_LOAD_CELL_D,      QC42.DL0011834,      999
RPS,D_HOIST_SPEED,      QC42.WX001_001_0006, 999
RPS,D_TROLLEY_SPEED,    QC42.WX001_006_0006, 999
RPS,D_BOOM_POSITION,    QC42.DL0001600,      999
RPS,D_BOOM_SPEED,       QC42.DL0001010,      999
#DATALOG/C32 M09 M10 M11, C32 C35 C36 C38
#_M,A_SPREADER_20FT,    QC32.X070_005_000B,  999
#_M,A_SPREADER_40FT,    QC32.X070_005_000C,  999
#_M,A_SPREADER_45FT,    QC32.X070_005_000D,  999
#DATALOG/C42 C39 C40 C41 C42
RPS,A_SPREADER_20FT,    QC42.X073_0001,      999
RPS,A_SPREADER_40FT,    QC42.X073_0002,      999
RPS,A_SPREADER_45FT,    QC42.X073_0003,      999
RPS,A_SPREADER_LANDED,  QC42.X073_0006,      999
RPS,A_SPREADER_LOCKED,  QC42.X073_0004,      999
RPS,A_SPREADER_UNLOCKED,QC42.X073_0005,      999