CMP,D_TOTAL_LOAD,       QC32.DL0000732,      0.1
CMP,D_HOIST_POSITION,   QC32.DL0001400,      999
CMP,D_TROLLEY_POSITION, QC32.DL0001500,      999
RPS,D_LOAD_CELL_A,      QC32.DL0011828,      999
RPS,D_LOAD_CELL_B,      QC32.DL0011830,      999
RPS,D_LOAD_CELL_C,      QC32.DL0011832,      999
RPS,D_LOAD_CELL_D,      QC32.DL0011834,      999
RPS,D_HOIST_SPEED,      QC32.WX001_001_0006, 999
RPS,D_TROLLEY_SPEED,    QC32.WX001_006_0006, 999
RPS,D_BOOM_POSITION,    QC32.DL0001600,      999
RPS,D_BOOM_SPEED,       QC32.DL0001010,      999
RPS,A_SPREADER_20FT,    QC32.X070_005_000B,  999
RPS,A_SPREADER_40FT,    QC32.X070_005_000C,  999
RPS,A_SPREADER_45FT,    QC32.X070_005_000D,  999
RPS,A_SPREADER_LANDED,  QC32.X073_000A,      999
#PS,A_SPREADER_LANDED,  QC32.X073_0006,      999
#PS,A_SPREADER_LOCKED,  QC32.X073_0004,      999
#PS,A_SPREADER_UNLOCKED,QC32.X073_0005,      999
RPS,A_SPREADER_LOCKED,  QC32.M0018681,       999
RPS,A_SPREADER_UNLOCKED,QC32.M0018682,       999