CMP,D_TOTAL_LOAD,       TCP CHANNEL>S7_300>ProcessdataToSIS.DD_136,      999
CMP,D_HOIST_POSITION,   TCP CHANNEL>S7_300>ProcessdataToSIS.DD_120,      999
CMP,D_TROLLEY_POSITION, TCP CHANNEL>S7_300>ProcessdataToSIS.DD_124,      999
RPS,A_TROLLEY_POS_LS,   TCP CHANNEL>S7_300>DB1000.TROLLEY_POS_LS,        999
RPS,D_LOAD_CELL_A,      TCP CHANNEL>S7_300>ProcessdataToSIS.DD_140,      999
RPS,D_LOAD_CELL_B,      TCP CHANNEL>S7_300>ProcessdataToSIS.DD_144,      999
RPS,D_LOAD_CELL_C,      TCP CHANNEL>S7_300>DB200.loadcell_3,             999
RPS,D_LOAD_CELL_D,      TCP CHANNEL>S7_300>DB200.loadcell_4,             999
RPS,D_HOIST_SPEED,      TCP CHANNEL>S7_300>DB2000.HO_SD_RPM,             999
RPS,D_TROLLEY_SPEED,    TCP CHANNEL>S7_300>DB2000.TR_SPEED,              999
RPS,D_BOOM_POSITION,    TCP CHANNEL>S7_300>DB2000.POS_BOOM,              999
RPS,D_BOOM_SPEED,       TCP CHANNEL>S7_300>DB2000.BO_SD_RPM,             999
RPS,A_SPREADER_20FT,    TCP CHANNEL>S7_300>M86.0,                        999
RPS,A_SPREADER_40FT,    TCP CHANNEL>S7_300>M86.1,                        999
RPS,A_SPREADER_45FT,    TCP CHANNEL>S7_300>M86.2,                        999
RPS,A_SPREADER_LANDED,  TCP CHANNEL>S7_300>DB1000.SPREADER_LANDED,       999
RPS,A_SPREADER_LOCKED,  TCP CHANNEL>S7_300>ProcessdataToSIS.D50_00,      999
RPS,A_SPREADER_UNLOCKED,TCP CHANNEL>S7_300>ProcessdataToSIS.D49_04,      999
